<?xml version="1.0" encoding="utf-8"?>
<!-- Generator: Adobe Illustrator 17.0.0, SVG Export Plug-In . SVG Version: 6.00 Build 0)  -->
<!DOCTYPE svg PUBLIC "-//W3C//DTD SVG 1.1//EN" "http://www.w3.org/Graphics/SVG/1.1/DTD/svg11.dtd">
<svg version="1.1" id="Capa_1" xmlns="http://www.w3.org/2000/svg" xmlns:xlink="http://www.w3.org/1999/xlink" x="0px" y="0px"
	 width="1984.25px" height="1133.86px" viewBox="0 0 1984.25 1133.86" enable-background="new 0 0 1984.25 1133.86"
	 xml:space="preserve">
<g>
	<g>
		<path fill="#B1B4B3" d="M578.868,724.494h-95.481l37.771-146.659h-1.413l-76.912,146.659H380.44l-6.536-146.659h-1.893
			l-29.303,146.659H255.1l57.303-250.237H427.9l9.805,135.015h1.898l68.483-135.015H636.17L578.868,724.494z"/>
		<path fill="#B1B4B3" d="M757.725,687.727h-59.163l-17.193,36.767H579.798l138.82-250.237h120.701l17.232,250.237h-98.827V687.727z
			 M721.924,631.537h37.248v-82.316h-1.854L721.924,631.537z"/>
		<path fill="#B1B4B3" d="M1451.466,724.494h-95.519l37.771-146.659h-1.448l-76.801,146.659h-62.508l-6.498-146.659h-1.854
			l-29.38,146.659h-87.531l57.303-250.237h115.496l9.772,135.015h1.893l68.521-135.015h128.124L1451.466,724.494z"/>
		<path fill="#B1B4B3" d="M1630.323,687.727h-59.085l-17.309,36.767h-101.533l138.896-250.237h120.664l17.193,250.237h-98.827
			V687.727z M1594.484,631.537h37.253v-82.316h-1.899L1594.484,631.537z"/>
	</g>
	<path fill="#E20613" d="M974.057,562.164h116.504c-20.501,30.898-55.559,51.287-95.448,51.287
		c-63.207,0-114.496-51.25-114.496-114.497c0-63.209,51.289-114.497,114.496-114.497c34.612,0,65.659,15.376,86.605,39.701h125.715
		c-30.454-89.54-115.205-153.975-215.033-153.975c-111.524,0-204.22,80.405-223.423,186.322h90.287l11.29,232.522
		c35.241,22.431,77.023,35.467,121.846,35.467c42.118,0,81.523-11.513,115.392-31.512l56.451-221.51H974.057V562.164z"/>
</g>
</svg>
